w1;w2;w3;w4;w5;w6;w7
[1.64444561];[-0.29623775];[1.10254595];[0.57363063];[-0.53130211];[0.03468163];[-0.52387064]
[1.64444561];[-0.29623775];[1.10254595];[0.57363063];[-0.53130211];[0.03468163];[-0.52387064]
[1.64444561];[-0.29623775];[1.10254595];[0.57363063];[-0.53130211];[0.03468163];[-0.52387064]
[1.64444561];[-0.29623775];[1.10254595];[0.57363063];[-0.53130211];[0.03468163];[-0.52387064]
[1.64444561];[-0.29623775];[1.10254595];[0.57363063];[-0.53130211];[0.03468163];[-0.52387064]
[1.64444561];[-0.29623775];[1.10254595];[0.57363063];[-0.53130211];[0.03468163];[-0.52387064]
[1.64444561];[-0.29623775];[1.10254595];[0.57363063];[-0.53130211];[0.03468163];[-0.52387064]
[1.64444561];[-0.29623775];[1.10254595];[0.57363063];[-0.53130211];[0.03468163];[-0.52387064]
[1.64444561];[-0.29623775];[1.10254595];[0.57363063];[-0.53130211];[0.03468163];[-0.52387064]
[1.64444561];[-0.29623775];[1.10254595];[0.57363063];[-0.53130211];[0.03468163];[-0.52387064]
[1.64444561];[-0.29623775];[1.10254595];[0.57363063];[-0.53130211];[0.03468163];[-0.52387064]
[1.64444561];[-0.29623775];[1.10254595];[0.57363063];[-0.53130211];[0.03468163];[-0.52387064]
[1.64444561];[-0.29623775];[1.10254595];[0.57363063];[-0.53130211];[0.03468163];[-0.52387064]
[1.64444561];[-0.29623775];[1.10254595];[0.57363063];[-0.53130211];[0.03468163];[-0.52387064]
[1.64444561];[-0.29623775];[1.10254595];[0.57363063];[-0.53130211];[0.03468163];[-0.52387064]
[1.64444561];[-0.29623775];[1.10254595];[0.57363063];[-0.53130211];[0.03468163];[-0.52387064]
[1.64444561];[-0.29623775];[1.10254595];[0.57363063];[-0.53130211];[0.03468163];[-0.52387064]
[1.64444561];[-0.29623775];[1.10254595];[0.57363063];[-0.53130211];[0.03468163];[-0.52387064]
[1.64444561];[-0.29623775];[1.10254595];[0.57363063];[-0.53130211];[0.03468163];[-0.52387064]
[1.64444561];[-0.29623775];[1.10254595];[0.57363063];[-0.53130211];[0.03468163];[-0.52387064]
